ImageMagick7-7.0.10.6          Image processing tools
apr-1.7.0.1.6.1_1              Apache Portability Library
avahi-app-0.7_3                Service discovery on a local network
bash-5.0.17                    GNU Project's Bourne Again SHell
c-ares-1.15.0_1                Asynchronous DNS resolver library
ca_root_nss-3.52               Root certificate bundle from the Mozilla Project
cairo-1.16.0,2                 Vector graphics library with cross-device output support
cfitsio-3.470_1                Library for reading and writing files in FITS data format
cups-2.2.13                    Common UNIX Printing System
curl-7.70.0                    Command line tool and library for transferring data with URLs
cvsps-2.1_2                    Create patchset information from CVS
db5-5.3.28_7                   Oracle Berkeley DB, revision 5.3
dbus-1.12.16                   Message bus system for inter-application communication
dbus-glib-0.110                GLib bindings for the D-BUS messaging system
dejavu-2.37_1                  Bitstream Vera Fonts clone with a wider range of characters
encodings-1.0.5,1              X.Org Encoding fonts
expat-2.2.8                    XML 1.0 parser written in C
f2c-20060810_6                 Fortran-to-C converter and its run-time libraries
fftw3-3.3.8_6                  Fast C routines to compute the Discrete Fourier Transform
firstboot-freebsd-update-1.2   Update the system using freebsd-update when it first boots
firstboot-pkgs-1.5             Install packages when the system first boots
font-bh-ttf-1.0.3_4            X.Org Bigelow & Holmes TTF font
font-misc-ethiopic-1.0.3_4     X.Org miscellaneous Ethiopic font
font-misc-meltho-1.0.3_4       X.Org miscellaneous Meltho font
fontconfig-2.13.92_2,1         XML-based font configuration API for X Windows
freetype2-2.10.1               Free and portable TrueType font rendering engine
fribidi-0.19.7                 Free Implementation of the Unicode Bidirectional Algorithm
gdbm-1.18.1_1                  GNU database manager
gdk-pixbuf2-2.40.0             Graphic library for GTK+
gettext-runtime-0.20.1         GNU gettext runtime libraries and programs
gflags-2.2.2_2                 Commandline flags module for C++
ghostscript9-agpl-base-9.52_4  PostScript and PDF interpreter
ghostscript9-agpl-x11-9.52     PostScript and PDF interpreter, X11 support
giflib-5.2.1                   Tools and library routines for working with GIF images
git-2.26.2                     Distributed source code management tool
gitaly-12.9.5                  Smart reverse proxy for GitLab
gitlab-ce-12.9.5               Web GUI for managing git repositories
gitlab-pages-1.17.0            Official GitLab Pages daemon
gitlab-shell-12.0.0            GitLab Shell handles git commands for GitLab
gitlab-workhorse-8.25.2        Smart reverse proxy for GitLab
glib-2.56.3_7,1                Some useful routines of C programming (current stable version)
gmp-6.2.0                      Free library for arbitrary precision arithmetic
gnome_subr-1.0                 Common startup and shutdown subroutines used by GNOME scripts
gnupg-2.2.20                   Complete and free PGP implementation
gnutls-3.6.13                  GNU Transport Layer Security library
gobject-introspection-1.56.1,1 Generate interface introspection data for GObject libraries
gpgme-1.13.1                   Library to make access to GnuPG easier
graphite2-1.3.14               Rendering capabilities for complex non-Roman writing systems
grpc-1.22.0_2,2                HTTP/2-based RPC framework
gsfonts-8.11_8                 Standard Fonts for Ghostscript
harfbuzz-2.6.5                 OpenType text shaping engine
hdf-szip-2.1.1                 Lossless compression library for scientific data
hdf5-1.10.6,1                  Hierarchical Data Format library (from NCSA)
icu-67.1,1                     International Components for Unicode (from IBM)
ilmbase-2.5.0                  ILM Base libraries a.k.a. Half, IlmThread, Imath, and Iex
indexinfo-0.3.1                Utility to regenerate the GNU info page index
jbig2dec-0.18                  Decoder implementation of the JBIG2 image compression format
jbigkit-2.1_1                  Lossless compression for bi-level images such as scanned pages, faxes
jpeg-turbo-2.0.4               SIMD-accelerated JPEG codec which replaces libjpeg
krb5-1.18.1                    MIT implementation of RFC 4120 network authentication service
lcms2-2.9                      Accurate, fast, and small-footprint color management engine
libICE-1.0.10,1                Inter Client Exchange library for X11
libSM-1.2.3,1                  Session Management library for X11
libX11-1.6.9_1,1               X11 library
libXau-1.0.9                   Authentication Protocol library for X11
libXdamage-1.1.5               X Damage extension library
libXdmcp-1.1.3                 X Display Manager Control Protocol library
libXext-1.3.4,1                X11 Extension library
libXfixes-5.0.3_2              X Fixes extension library
libXft-2.3.3                   Client-sided font API for X applications
libXrender-0.9.10_2            X Render extension library
libXt-1.2.0,1                  X Toolkit library
libXxf86vm-1.1.4_3             X Vidmode Extension
libassuan-2.5.3                IPC library used by GnuPG and gpgme
libcroco-0.6.13                CSS2 parsing library
libdaemon-0.14_1               Lightweight C library that eases the writing of UNIX daemons
libde265-1.0.2_5               Open source h.265 video codec
libdrm-2.4.99,1                Userspace interface to kernel Direct Rendering Module services
libedit-3.1.20191231,1         Command line editor library
libepoll-shim-0.0.20200223     Small epoll implementation using kqueue
libexif-0.6.21_5               Library to read digital camera file meta-data
libffi-3.2.1_3                 Foreign Function Interface
libfontenc-1.1.4               The fontenc Library
libgcrypt-1.8.5                General purpose cryptographic library based on the code from GnuPG
libgit2-1.0.0                  Portable, pure C implementation of the Git core
libgpg-error-1.37              Common error values for all GnuPG components
libgsf-1.14.46                 Extensible I/O abstraction for dealing with structured file formats
libheif-1.6.0_1                Libheif is an ISO/IEC 23008-12:2017 HEIF file format de- and encoder
libiconv-1.14_11               Character set conversion library
libidn-1.35                    Internationalized Domain Names command line tool
libidn2-2.3.0_1                Implementation of IDNA2008 internationalized domain names
libinotify-20180201_2          Kevent based inotify compatible library
libksba-1.3.5_1                KSBA is an X.509 Library
liblqr-1-0.4.2                 Easy to use C/C++ seam carving library
libltdl-2.4.6                  System independent dlopen wrapper
liblz4-1.9.2_1,1               LZ4 compression library, lossless and very fast
libnghttp2-1.40.0              HTTP/2.0 C Library
libpaper-1.1.24.4              Library providing routines for paper size management
libpciaccess-0.16              Generic PCI access library
libpthread-stubs-0.4           This library provides weak aliases for pthread functions
libraqm-0.6.0                  Library that encapsulates complex text layout logic
libraw-0.19.5                  Library for manipulating raw images
librsvg2-2.40.21               Library for parsing and rendering SVG vector-graphic files
libssh2-1.8.2,3                Library implementing the SSH2 protocol
libtasn1-4.16.0                ASN.1 structure parser library
libunistring-0.9.10_1          Unicode string library
libunwind-20170615_1           Generic stack unwinding library
libuv-1.37.0                   Multi-platform support library with a focus on asynchronous I/O
libwmf-0.2.8.4_15              Tools and library for converting Microsoft WMF (windows metafile)
libxcb-1.13.1                  The X protocol C-language Binding (XCB) library
libxml2-2.9.10                 XML parser library for GNOME
libxshmfence-1.3               Shared memory 'SyncFence' synchronization primitive
libxslt-1.1.34_1               The XSLT C library for GNOME
libyaml-0.2.4                  YAML 1.1 parser and emitter written in C
matio-1.5.17                   Library for reading and writing Matlab MAT files
mesa-libs-19.0.8               OpenGL libraries that support GLX and EGL clients
mkfontscale-1.2.1              Creates an index of scalable font files for X
nettle-3.5.1_1                 Low-level cryptographic library
nginx-1.18.0_2,2               Robust and small WWW server
node-13.13.0                   V8 JavaScript for client and server
npth-1.6                       New GNU Portable Threads
nspr-4.25                      Platform-neutral API for system level and libc like functions
nss-3.52                       Libraries to support development of security-enabled applications
openexr-2.5.0                  High dynamic-range (HDR) image file format
openjpeg-2.3.1                 Open-source JPEG 2000 codec
orc-0.4.31                     Library and toolset to operate arrays of data
p11-kit-0.23.20                Library for loading and enumerating of PKCS#11 modules
p5-Authen-SASL-2.16_1          Perl5 module for SASL authentication
p5-CGI-4.47                    Handle Common Gateway Interface requests and responses
p5-Digest-HMAC-1.03_1          Perl5 interface to HMAC Message-Digest Algorithms
p5-Error-0.17029               Error/exception handling in object-oriented programming style
p5-GSSAPI-0.28_1               Perl extension providing access to the GSSAPIv2 library
p5-HTML-Parser-3.72            Perl5 module for parsing HTML documents
p5-HTML-Tagset-3.20_1          Some useful data table in parsing HTML
p5-IO-Socket-INET6-2.72_1      Perl module with object interface to AF_INET6 domain sockets
p5-IO-Socket-SSL-2.068         Perl5 interface to SSL sockets
p5-Image-ExifTool-11.70        Perl module for getting EXIF data from image files
p5-Mozilla-CA-20180117         Perl extension for Mozilla CA cert bundle in PEM format
p5-Net-SSLeay-1.88             Perl5 interface to SSL
p5-Socket6-0.29                IPv6 related part of the C socket.h defines and structure manipulators
p5-Term-ReadKey-2.38_1         Perl5 module for simple terminal control
p5-subversion-1.13.0           Perl bindings for Version control system
pango-1.42.4_3                 Open-source framework for the layout and rendering of i18n text
pciids-20200421                Database of all known IDs used in PCI devices
pcre-8.43_2                    Perl Compatible Regular Expressions library
perl5-5.30.2                   Practical Extraction and Report Language
pinentry-1.1.0_6               Collection of simple PIN or passphrase entry dialogs
pinentry-tty-1.1.0             Console version of the GnuPG password dialog
pixman-0.40.0                  Low-level pixel manipulation library
pkg-1.14.4                     Package manager
pkgconf-1.6.3,1                Utility to help to configure compiler and linker flags
png-1.6.37                     Library for manipulating PNG images
poppler-0.88.0                 PDF rendering library
poppler-data-0.4.9_2           Poppler encoding data
poppler-glib-0.88.0            GLib bindings to poppler
postgresql11-client-11.7       PostgreSQL database (client)
postgresql11-contrib-11.7      The contrib utilities from the PostgreSQL distribution
postgresql11-server-11.7_2     PostgreSQL is the most advanced open-source database available anywhere
protobuf-3.11.4,1              Data interchange format library
python-3.7_3,2                 "meta-port" for the default version of Python interpreter
python3-3_3                    The "meta-port" for version 3 of the Python interpreter
python37-3.7.7                 Interpreted object-oriented programming language
re2-20200401                   Fast C++ regex library
readline-8.0.4                 Library for editing command lines as they are typed
redis-5.0.9                    Persistent key-value database with built-in net interface
rsync-3.1.3_1                  Network file distribution/synchronization utility
ruby-2.6.6,1                   Object-oriented interpreted scripting language
ruby26-gems-3.0.6              Package management framework for the Ruby language
rubygem-ace-rails-ap-4.1.5     Ajax.org Cloud9 Editor (Ace) for the Rails 3.1 asset pipeline
rubygem-acme-client-2.0.6      Client for the ACME protocol
rubygem-actioncable60-6.0.2.2  Integrated WebSockets for Rails
rubygem-actionmailbox60-6.0.2.2 Receive and process incoming emails in Rails applications
rubygem-actionmailer60-6.0.2.2 Easy email delivery and testing for Ruby
rubygem-actionpack60-6.0.2.2   Action Controller and Action View of Rails MVC Framework
rubygem-actiontext60-6.0.2.2   Edit and display rich text in Rails applications
rubygem-actionview60-6.0.2.2   Rendering framework putting the V in MVC (part of Rails)
rubygem-activejob60-6.0.2.2    Job class declarations for a variety of queueing backends
rubygem-activemodel4-4.2.11.1  Toolkit for building modeling frameworks
rubygem-activemodel50-5.0.7.2  Toolkit for building modeling frameworks
rubygem-activemodel52-5.2.4.2  Toolkit for building modeling frameworks
rubygem-activemodel60-6.0.2.2  Toolkit for building modeling frameworks
rubygem-activerecord-explain-analyze-0.1.0_2 Extends ActiveRecord
rubygem-activerecord4-4.2.11.1 Object-relational mapping layer for Rails MVC Framework
rubygem-activerecord50-5.0.7.2 Object-relational mapping layer for Rails MVC Framework
rubygem-activerecord52-5.2.4.2 Object-relational mapping layer for Rails MVC Framework
rubygem-activerecord60-6.0.2.2 Object-relational mapping layer for Rails MVC Framework
rubygem-activestorage60-6.0.2.2 Attach cloud and local files in Rails applications
rubygem-activesupport4-4.2.11.1_1 Utility classes and extension that are required by Rails MVC Framework
rubygem-activesupport5-5.1.7_1 Utility classes and extension that are required by Rails MVC Framework
rubygem-activesupport50-5.0.7.2_1 Utility classes and extension that are required by Rails MVC Framework
rubygem-activesupport52-5.2.4.2 Utility classes and extension that are required by Rails MVC Framework
rubygem-activesupport60-6.0.2.2 Utility classes and extension that are required by Rails MVC Framework
rubygem-acts-as-taggable-on-6.5.0 Tag a single model on several contexts
rubygem-addressable-2.7.0      Replacement for the URI implementation
rubygem-aes_key_wrap-1.0.1_1   Ruby implementation of AES Key Wrap
rubygem-akismet-3.0.0          Ruby client for the Akismet API
rubygem-apollo_upload_server-2.0.0.b.3_2 Apollo-upload-server middleware for rails
rubygem-arel-9.0.0,1           Relational Algebra for Ruby
rubygem-arel6-6.0.4            Relational Algebra for Ruby
rubygem-arel7-7.1.4,1          Relational Algebra for Ruby
rubygem-asana-0.10.0           Ruby wrapper for the Asana REST API
rubygem-asciidoctor-2.0.10     Fast, open source text processor and publishing toolchain
rubygem-asciidoctor-include-ext-0.3.1 Reimplementation of the Asciidoctor's built-in (pre)processor
rubygem-asciidoctor-plantuml0010-0.0.10 Asciidoctor PlantUML extension
rubygem-atlassian-jwt-0.2.0    Authenticate with the Atlassian Connect REST APIs
rubygem-attr_encrypted-3.1.0   Generates attr_accessors that encrypt and decrypt attributes
rubygem-attr_required-1.0.1    Ruby implementations of attr_required and attr_optional
rubygem-aws-eventstream-1.1.0  Amazon Web Services event stream library
rubygem-aws-partitions-1.312.0 Provides interfaces to enumerate AWS partitions, regions, and services
rubygem-aws-sdk-3.0.1          AWS SDK for Ruby
rubygem-aws-sdk-accessanalyzer-1.6.0 Official AWS Ruby gem for Access Analyzer
rubygem-aws-sdk-acm-1.30.0     Official AWS Ruby gem for AWS Certificate Manager (ACM)
rubygem-aws-sdk-acmpca-1.23.0  Official AWS Ruby gem for AWS Certificate Manager Private Certificate Authority (ACM-PCA)
rubygem-aws-sdk-alexaforbusiness-1.35.0 Official AWS Ruby gem for Alexa For Business
rubygem-aws-sdk-amplify-1.16.0 Official AWS Ruby gem for AWS Amplify (Amplify)
rubygem-aws-sdk-apigateway-1.40.0 Official AWS Ruby gem for Amazon API Gateway
rubygem-aws-sdk-apigatewaymanagementapi-1.13.0 Official AWS Ruby gem for AmazonApiGatewayManagementApi
rubygem-aws-sdk-apigatewayv2-1.20.0 Official AWS Ruby gem for AmazonApiGatewayV2
rubygem-aws-sdk-appconfig-1.5.0 Official AWS Ruby gem for Amazon AppConfig (AppConfig)
rubygem-aws-sdk-applicationautoscaling-1.38.0 Official AWS Ruby gem for Application Auto Scaling
rubygem-aws-sdk-applicationdiscoveryservice-1.26.0 Official AWS Ruby gem for AWS Application Discovery Service
rubygem-aws-sdk-applicationinsights-1.9.0 Official AWS Ruby gem for Amazon CloudWatch Application Insights (Application Insights)
rubygem-aws-sdk-appmesh-1.22.0 Official AWS Ruby gem for AWS App Mesh
rubygem-aws-sdk-appstream-1.40.0 Official AWS Ruby gem for Amazon AppStream
rubygem-aws-sdk-appsync-1.25.0 Official AWS Ruby gem for AWS AppSync (AWSAppSync)
rubygem-aws-sdk-athena-1.25.0  Official AWS Ruby gem for Amazon Athena
rubygem-aws-sdk-augmentedairuntime-1.4.0 Official AWS Ruby gem for Amazon Augmented AI Runtime
rubygem-aws-sdk-autoscaling-1.35.0 Official AWS Ruby gem for Auto Scaling
rubygem-aws-sdk-autoscalingplans-1.22.0 Official AWS Ruby gem for AWS Auto Scaling Plans
rubygem-aws-sdk-backup-1.13.0  Official AWS Ruby gem for AWS Backup
rubygem-aws-sdk-batch-1.30.0   Official AWS Ruby gem for AWS Batch
rubygem-aws-sdk-budgets-1.29.0 Official AWS Ruby gem for AWS Budgets (AWSBudgets)
rubygem-aws-sdk-chime-1.24.0   Official AWS Ruby gem for Amazon Chime
rubygem-aws-sdk-cloud9-1.22.0  Official AWS Ruby gem for AWS Cloud9
rubygem-aws-sdk-clouddirectory-1.23.0 Official AWS Ruby gem for Amazon CloudDirectory
rubygem-aws-sdk-cloudformation-1.34.0 Official AWS Ruby gem for AWS CloudFormation
rubygem-aws-sdk-cloudfront-1.27.0 Official AWS Ruby gem for Amazon CloudFront (CloudFront)
rubygem-aws-sdk-cloudhsm-1.21.0 Official AWS Ruby gem for Amazon CloudHSM (CloudHSM)
rubygem-aws-sdk-cloudhsmv2-1.22.0 Official AWS Ruby gem for AWS CloudHSM V2 (CloudHSM V2)
rubygem-aws-sdk-cloudsearch-1.19.0 Official AWS Ruby gem for Amazon CloudSearch
rubygem-aws-sdk-cloudsearchdomain-1.17.0 Official AWS Ruby gem for Amazon CloudSearch Domain
rubygem-aws-sdk-cloudtrail-1.22.0 Official AWS Ruby gem for AWS CloudTrail (CloudTrail)
rubygem-aws-sdk-cloudwatch-1.37.0 Official AWS Ruby gem for Amazon CloudWatch (CloudWatch)
rubygem-aws-sdk-cloudwatchevents-1.28.0 Official AWS Ruby gem for Amazon CloudWatch Events
rubygem-aws-sdk-cloudwatchlogs-1.30.0 Official AWS Ruby gem for Amazon CloudWatch Logs
rubygem-aws-sdk-codebuild-1.50.0 Official AWS Ruby gem for AWS CodeBuild
rubygem-aws-sdk-codecommit-1.32.0 Official AWS Ruby gem for AWS CodeCommit (CodeCommit)
rubygem-aws-sdk-codedeploy-1.29.0 Official AWS Ruby gem for AWS CodeDeploy (CodeDeploy)
rubygem-aws-sdk-codeguruprofiler-1.4.0 Official AWS Ruby gem for Amazon CodeGuru Profiler
rubygem-aws-sdk-codegurureviewer-1.4.0 Official AWS Ruby gem for Amazon CodeGuru Reviewer (CodeGuruReviewer)
rubygem-aws-sdk-codepipeline-1.30.0 Official AWS Ruby gem for AWS CodePipeline (CodePipeline)
rubygem-aws-sdk-codestar-1.20.0 Official AWS Ruby gem for AWS CodeStar (CodeStar)
rubygem-aws-sdk-codestarconnections-1.3.0 Official AWS Ruby gem for AWS CodeStar connections
rubygem-aws-sdk-codestarnotifications-1.2.0 Official AWS Ruby gem for AWS CodeStar Notifications
rubygem-aws-sdk-cognitoidentity-1.21.0 Official AWS Ruby gem for Amazon Cognito Identity
rubygem-aws-sdk-cognitoidentityprovider-1.35.0 Official AWS Ruby gem for Amazon Cognito Identity Provider
rubygem-aws-sdk-cognitosync-1.18.0 Official AWS Ruby gem for Amazon Cognito Sync
rubygem-aws-sdk-comprehend-1.31.0 Official AWS Ruby gem for Amazon Comprehend
rubygem-aws-sdk-comprehendmedical-1.16.0 Official AWS Ruby gem for AWS Comprehend Medical (ComprehendMedical)
rubygem-aws-sdk-computeoptimizer-1.2.0 Official AWS Ruby gem for AWS Compute Optimizer
rubygem-aws-sdk-configservice-1.44.0 Official AWS Ruby gem for AWS Config (Config Service)
rubygem-aws-sdk-connect-1.24.0 Official AWS Ruby gem for Amazon Connect Service (Amazon Connect)
rubygem-aws-sdk-connectparticipant-1.2.0 Official AWS Ruby gem for Amazon Connect Participant Service (Amazon Connect Participant)
rubygem-aws-sdk-core-3.95.0    AWS SDK for Ruby - Core
rubygem-aws-sdk-costandusagereportservice-1.20.0 Official AWS Ruby gem for AWS Cost and Usage Report Service
rubygem-aws-sdk-costexplorer-1.41.0 Official AWS Ruby gem for AWS Cost Explorer Service (AWS Cost Explorer)
rubygem-aws-sdk-databasemigrationservice-1.33.0 Official AWS Ruby gem for AWS Database Migration Service
rubygem-aws-sdk-dataexchange-1.3.0 Official AWS Ruby gem for AWS Data Exchange
rubygem-aws-sdk-datapipeline-1.18.0 Official AWS Ruby gem for AWS Data Pipeline
rubygem-aws-sdk-datasync-1.19.0 Official AWS Ruby gem for AWS DataSync (DataSync)
rubygem-aws-sdk-dax-1.21.0     Official AWS Ruby gem for Amazon DynamoDB Accelerator (DAX) (Amazon DAX)
rubygem-aws-sdk-detective-1.5.0 Official AWS Ruby gem for Amazon Detective
rubygem-aws-sdk-devicefarm-1.32.0 Official AWS Ruby gem for AWS Device Farm
rubygem-aws-sdk-directconnect-1.28.0 Official AWS Ruby gem for AWS Direct Connect
rubygem-aws-sdk-directoryservice-1.27.0 Official AWS Ruby gem for AWS Directory Service (Directory Service)
rubygem-aws-sdk-dlm-1.27.0     Official AWS Ruby gem for Amazon Data Lifecycle Manager (Amazon DLM)
rubygem-aws-sdk-docdb-1.16.0   Official AWS Ruby gem for Amazon DocumentDB with MongoDB compatibility (Amazon DocDB)
rubygem-aws-sdk-dynamodb-1.46.0 Official AWS Ruby gem for Amazon DynamoDB (DynamoDB)
rubygem-aws-sdk-dynamodbstreams-1.18.0 Official AWS Ruby gem for Amazon DynamoDB Streams
rubygem-aws-sdk-ebs-1.3.0      Official AWS Ruby gem for Amazon Elastic Block Store (Amazon EBS)
rubygem-aws-sdk-ec2-1.157.0    Official AWS Ruby gem for Amazon Elastic Compute Cloud (Amazon EC2)
rubygem-aws-sdk-ec2instanceconnect-1.5.0 Official AWS Ruby gem for AWS EC2 Instance Connect (EC2 Instance Connect)
rubygem-aws-sdk-ecr-1.28.0     Official AWS Ruby gem for Amazon EC2 Container Registry (Amazon ECR)
rubygem-aws-sdk-ecs-1.61.0     Official AWS Ruby gem for Amazon EC2 Container Service (Amazon ECS)
rubygem-aws-sdk-efs-1.28.0     Official AWS Ruby gem for Amazon Elastic File System (EFS)
rubygem-aws-sdk-eks-1.36.0     Official AWS Ruby gem for Amazon Elastic Kubernetes Service (Amazon EKS)
rubygem-aws-sdk-elasticache-1.32.0 Official AWS Ruby gem for Amazon ElastiCache
rubygem-aws-sdk-elasticbeanstalk-1.29.0 Official AWS Ruby gem for AWS Elastic Beanstalk (Elastic Beanstalk)
rubygem-aws-sdk-elasticinference-1.4.0 Official AWS Ruby gem for Amazon Elastic Inference (Amazon Elastic Inference)
rubygem-aws-sdk-elasticloadbalancing-1.21.0 Official AWS Ruby gem for Elastic Load Balancing
rubygem-aws-sdk-elasticloadbalancingv2-1.42.0 Official AWS Ruby gem for Elastic Load Balancing (Elastic Load Balancing v2)
rubygem-aws-sdk-elasticsearchservice-1.34.0 Official AWS Ruby gem for Amazon Elasticsearch Service
rubygem-aws-sdk-elastictranscoder-1.20.0 Official AWS Ruby gem for Amazon Elastic Transcoder
rubygem-aws-sdk-emr-1.27.0     Official AWS Ruby gem for Amazon Elastic MapReduce (Amazon EMR)
rubygem-aws-sdk-eventbridge-1.6.0 Official AWS Ruby gem for Amazon EventBridge
rubygem-aws-sdk-firehose-1.27.0 Official AWS Ruby gem for Amazon Kinesis Firehose (Firehose)
rubygem-aws-sdk-fms-1.25.0     Official AWS Ruby gem for Firewall Management Service (FMS)
rubygem-aws-sdk-forecastqueryservice-1.4.0 Official AWS Ruby gem for Amazon Forecast Query Service
rubygem-aws-sdk-forecastservice-1.4.0 Official AWS Ruby gem for Amazon Forecast Service
rubygem-aws-sdk-frauddetector-1.3.0 Official AWS Ruby gem for Amazon Fraud Detector
rubygem-aws-sdk-fsx-1.18.0     Official AWS Ruby gem for Amazon FSx
rubygem-aws-sdk-gamelift-1.30.0 Official AWS Ruby gem for Amazon GameLift
rubygem-aws-sdk-glacier-1.28.0 Official AWS Ruby gem for Amazon Glacier
rubygem-aws-sdk-globalaccelerator-1.17.0 Official AWS Ruby gem for AWS Global Accelerator
rubygem-aws-sdk-glue-1.54.0    Official AWS Ruby gem for AWS Glue
rubygem-aws-sdk-greengrass-1.30.0 Official AWS Ruby gem for AWS Greengrass
rubygem-aws-sdk-groundstation-1.7.0 Official AWS Ruby gem for AWS Ground Station
rubygem-aws-sdk-guardduty-1.31.0 Official AWS Ruby gem for Amazon GuardDuty
rubygem-aws-sdk-health-1.23.0  Official AWS Ruby gem for AWS Health APIs and Notifications (AWSHealth)
rubygem-aws-sdk-iam-1.37.0     Official AWS Ruby gem for AWS Identity and Access Management (IAM)
rubygem-aws-sdk-imagebuilder-1.5.0 Official AWS Ruby gem for EC2 Image Builder (imagebuilder)
rubygem-aws-sdk-importexport-1.18.0 Official AWS Ruby gem for AWS Import/Export
rubygem-aws-sdk-inspector-1.25.0 Official AWS Ruby gem for Amazon Inspector
rubygem-aws-sdk-iot-1.49.0     Official AWS Ruby gem for AWS IoT
rubygem-aws-sdk-iot1clickdevicesservice-1.20.0 Official AWS Ruby gem for AWS IoT 1-Click Devices Service
rubygem-aws-sdk-iot1clickprojects-1.20.0 Official AWS Ruby gem for AWS IoT 1-Click Projects Service (AWS IoT 1-Click Projects)
rubygem-aws-sdk-iotanalytics-1.28.0 Official AWS Ruby gem for AWS IoT Analytics
rubygem-aws-sdk-iotdataplane-1.18.0 Official AWS Ruby gem for AWS IoT Data Plane
rubygem-aws-sdk-iotevents-1.14.0 Official AWS Ruby gem for AWS IoT Events
rubygem-aws-sdk-ioteventsdata-1.7.0 Official AWS Ruby gem for AWS IoT Events Data
rubygem-aws-sdk-iotjobsdataplane-1.19.0 Official AWS Ruby gem for AWS IoT Jobs Data Plane
rubygem-aws-sdk-iotsecuretunneling-1.2.0 Official AWS Ruby gem for AWS IoT Secure Tunneling
rubygem-aws-sdk-iotsitewise-1.1.0 Official AWS Ruby gem for AWS IoT SiteWise
rubygem-aws-sdk-iotthingsgraph-1.6.0 Official AWS Ruby gem for AWS IoT Things Graph
rubygem-aws-sdk-kafka-1.20.0   Official AWS Ruby gem for Managed Streaming for Kafka (Kafka)
rubygem-aws-sdk-kendra-1.4.0   Official AWS Ruby gem for AWS Kendra Frontend Service (Kendra)
rubygem-aws-sdk-kinesis-1.22.0 Official AWS Ruby gem for Amazon Kinesis (Kinesis)
rubygem-aws-sdk-kinesisanalytics-1.23.0 Official AWS Ruby gem for Amazon Kinesis Analytics (Kinesis Analytics)
rubygem-aws-sdk-kinesisanalyticsv2-1.15.0 Official AWS Ruby gem for Amazon Kinesis Analytics (Kinesis Analytics V2)
rubygem-aws-sdk-kinesisvideo-1.24.0 Official AWS Ruby gem for Amazon Kinesis Video Streams (Kinesis Video)
rubygem-aws-sdk-kinesisvideoarchivedmedia-1.23.0 Official AWS Ruby gem for Amazon Kinesis Video Streams Archived Media (Kinesis Video Archived Media)
rubygem-aws-sdk-kinesisvideomedia-1.20.0 Official AWS Ruby gem for Amazon Kinesis Video Streams Media (Kinesis Video Media)
rubygem-aws-sdk-kinesisvideosignalingchannels-1.2.0 Official AWS Ruby gem for Amazon Kinesis Video Signaling Channels
rubygem-aws-sdk-kms-1.31.0     Official AWS Ruby gem for AWS Key Management Service (KMS)
rubygem-aws-sdk-lakeformation-1.3.0 Official AWS Ruby gem for AWS Lake Formation
rubygem-aws-sdk-lambda-1.41.0  Official AWS Ruby gem for AWS Lambda
rubygem-aws-sdk-lambdapreview-1.18.0 Official AWS Ruby gem for AWS Lambda
rubygem-aws-sdk-lex-1.25.0     Official AWS Ruby gem for Amazon Lex Runtime Service
rubygem-aws-sdk-lexmodelbuildingservice-1.29.0 Official AWS Ruby gem for Amazon Lex Model Building Service
rubygem-aws-sdk-licensemanager-1.13.0 Official AWS Ruby gem for AWS License Manager
rubygem-aws-sdk-lightsail-1.30.0 Official AWS Ruby gem for Amazon Lightsail
rubygem-aws-sdk-machinelearning-1.19.0 Official AWS Ruby gem for Amazon Machine Learning
rubygem-aws-sdk-macie-1.18.0   Official AWS Ruby gem for Amazon Macie
rubygem-aws-sdk-managedblockchain-1.10.0 Official AWS Ruby gem for Amazon Managed Blockchain (ManagedBlockchain)
rubygem-aws-sdk-marketplacecatalog-1.2.0 Official AWS Ruby gem for AWS Marketplace Catalog Service (AWS Marketplace Catalog)
rubygem-aws-sdk-marketplacecommerceanalytics-1.22.0 Official AWS Ruby gem for AWS Marketplace Commerce Analytics
rubygem-aws-sdk-marketplaceentitlementservice-1.18.0 Official AWS Ruby gem for AWS Marketplace Entitlement Service
rubygem-aws-sdk-marketplacemetering-1.23.0 Official AWS Ruby gem for AWSMarketplace Metering
rubygem-aws-sdk-mediaconnect-1.21.0 Official AWS Ruby gem for AWS MediaConnect
rubygem-aws-sdk-mediaconvert-1.48.0 Official AWS Ruby gem for AWS Elemental MediaConvert (MediaConvert)
rubygem-aws-sdk-medialive-1.44.0 Official AWS Ruby gem for AWS Elemental MediaLive (MediaLive)
rubygem-aws-sdk-mediapackage-1.27.0 Official AWS Ruby gem for AWS Elemental MediaPackage (MediaPackage)
rubygem-aws-sdk-mediapackagevod-1.12.0 Official AWS Ruby gem for AWS Elemental MediaPackage VOD (MediaPackage Vod)
rubygem-aws-sdk-mediastore-1.24.0 Official AWS Ruby gem for AWS Elemental MediaStore (MediaStore)
rubygem-aws-sdk-mediastoredata-1.21.0 Official AWS Ruby gem for AWS Elemental MediaStore Data Plane (MediaStore Data)
rubygem-aws-sdk-mediatailor-1.26.0 Official AWS Ruby gem for AWS MediaTailor (MediaTailor)
rubygem-aws-sdk-migrationhub-1.23.0 Official AWS Ruby gem for AWS Migration Hub
rubygem-aws-sdk-migrationhubconfig-1.3.0 Official AWS Ruby gem for AWS Migration Hub Config
rubygem-aws-sdk-mobile-1.18.0  Official AWS Ruby gem for AWS Mobile
rubygem-aws-sdk-mq-1.26.0      Official AWS Ruby gem for AmazonMQ
rubygem-aws-sdk-mturk-1.21.0   Official AWS Ruby gem for Amazon Mechanical Turk (Amazon MTurk)
rubygem-aws-sdk-neptune-1.23.0 Official AWS Ruby gem for Amazon Neptune
rubygem-aws-sdk-networkmanager-1.2.0 Official AWS Ruby gem for AWS Network Manager (NetworkManager)
rubygem-aws-sdk-opsworks-1.23.0 Official AWS Ruby gem for AWS OpsWorks
rubygem-aws-sdk-opsworkscm-1.33.0 Official AWS Ruby gem for AWS OpsWorks CM (OpsWorksCM)
rubygem-aws-sdk-organizations-1.40.0 Official AWS Ruby gem for AWS Organizations (Organizations)
rubygem-aws-sdk-outposts-1.4.0 Official AWS Ruby gem for AWS Outposts (Outposts)
rubygem-aws-sdk-personalize-1.11.0 Official AWS Ruby gem for Amazon Personalize
rubygem-aws-sdk-personalizeevents-1.6.0 Official AWS Ruby gem for Amazon Personalize Events
rubygem-aws-sdk-personalizeruntime-1.9.0 Official AWS Ruby gem for Amazon Personalize Runtime
rubygem-aws-sdk-pi-1.18.0      Official AWS Ruby gem for AWS Performance Insights (AWS PI)
rubygem-aws-sdk-pinpoint-1.39.0 Official AWS Ruby gem for Amazon Pinpoint
rubygem-aws-sdk-pinpointemail-1.18.0 Official AWS Ruby gem for Amazon Pinpoint Email Service (Pinpoint Email)
rubygem-aws-sdk-pinpointsmsvoice-1.15.0 Official AWS Ruby gem for Amazon Pinpoint SMS and Voice Service (Pinpoint SMS Voice)
rubygem-aws-sdk-polly-1.29.0   Official AWS Ruby gem for Amazon Polly
rubygem-aws-sdk-pricing-1.18.0 Official AWS Ruby gem for AWS Price List Service (AWS Pricing)
rubygem-aws-sdk-qldb-1.3.0     Official AWS Ruby gem for Amazon QLDB (QLDB)
rubygem-aws-sdk-qldbsession-1.3.0 Official AWS Ruby gem for Amazon QLDB Session (QLDB Session)
rubygem-aws-sdk-quicksight-1.19.0 Official AWS Ruby gem for Amazon QuickSight
rubygem-aws-sdk-ram-1.16.0     Official AWS Ruby gem for AWS Resource Access Manager (RAM)
rubygem-aws-sdk-rds-1.84.0     Official AWS Ruby gem for Amazon Relational Database Service (Amazon RDS)
rubygem-aws-sdk-rdsdataservice-1.17.0 Official AWS Ruby gem for AWS RDS DataService
rubygem-aws-sdk-redshift-1.42.0 Official AWS Ruby gem for Amazon Redshift
rubygem-aws-sdk-rekognition-1.37.0 Official AWS Ruby gem for Amazon Rekognition
rubygem-aws-sdk-resourcegroups-1.23.0 Official AWS Ruby gem for AWS Resource Groups (Resource Groups)
rubygem-aws-sdk-resourcegroupstaggingapi-1.25.0 Official AWS Ruby gem for AWS Resource Groups Tagging API
rubygem-aws-sdk-resources-3.72.0 AWS SDK for Ruby Resources
rubygem-aws-sdk-robomaker-1.23.0 Official AWS Ruby gem for AWS RoboMaker (RoboMaker)
rubygem-aws-sdk-route53-1.34.0 Official AWS Ruby gem for Amazon Route 53 (Route 53)
rubygem-aws-sdk-route53domains-1.21.0 Official AWS Ruby gem for Amazon Route 53 Domains
rubygem-aws-sdk-route53resolver-1.13.0 Official AWS Ruby gem for Amazon Route 53 Resolver (Route53Resolver)
rubygem-aws-sdk-s3-1.64.0      Official AWS Ruby gem for Amazon Simple Storage Service (Amazon S3)
rubygem-aws-sdk-s3control-1.18.0 Official AWS Ruby gem for AWS S3 Control
rubygem-aws-sdk-sagemaker-1.57.0 Official AWS Ruby gem for Amazon SageMaker Service (SageMaker)
rubygem-aws-sdk-sagemakerruntime-1.20.0 Official AWS Ruby gem for Amazon SageMaker Runtime
rubygem-aws-sdk-savingsplans-1.4.0 Official AWS Ruby gem for AWS Savings Plans (AWSSavingsPlans)
rubygem-aws-sdk-schemas-1.3.0  Official AWS Ruby gem for Schemas
rubygem-aws-sdk-secretsmanager-1.35.0 Official AWS Ruby gem for AWS Secrets Manager
rubygem-aws-sdk-securityhub-1.24.0 Official AWS Ruby gem for AWS SecurityHub
rubygem-aws-sdk-serverlessapplicationrepository-1.26.0 Official AWS Ruby gem for AWSServerlessApplicationRepository
rubygem-aws-sdk-servicecatalog-1.38.0 Official AWS Ruby gem for AWS Service Catalog
rubygem-aws-sdk-servicediscovery-1.22.0 Official AWS Ruby gem for AWS Cloud Map (ServiceDiscovery)
rubygem-aws-sdk-servicequotas-1.5.0 Official AWS Ruby gem for Service Quotas
rubygem-aws-sdk-ses-1.29.0     Official AWS Ruby gem for Amazon Simple Email Service (Amazon SES)
rubygem-aws-sdk-sesv2-1.4.0    Official AWS Ruby gem for Amazon Simple Email Service (Amazon SES V2)
rubygem-aws-sdk-shield-1.24.0  Official AWS Ruby gem for AWS Shield
rubygem-aws-sdk-signer-1.20.0  Official AWS Ruby gem for AWS Signer (signer)
rubygem-aws-sdk-simpledb-1.18.0 Official AWS Ruby gem for Amazon SimpleDB
rubygem-aws-sdk-sms-1.19.0     Official AWS Ruby gem for AWS Server Migration Service (SMS)
rubygem-aws-sdk-snowball-1.26.0 Official AWS Ruby gem for Amazon Import/Export Snowball (Amazon Snowball)
rubygem-aws-sdk-sns-1.23.0     Official AWS Ruby gem for Amazon Simple Notification Service (Amazon SNS)
rubygem-aws-sdk-sqs-1.25.0     Official AWS Ruby gem for Amazon Simple Queue Service (Amazon SQS)
rubygem-aws-sdk-ssm-1.77.0     Official AWS Ruby gem for Amazon Simple Systems Manager (SSM) (Amazon SSM)
rubygem-aws-sdk-sso-1.3.0      Official AWS Ruby gem for AWS Single Sign-On (SSO)
rubygem-aws-sdk-ssooidc-1.2.0  Official AWS Ruby gem for AWS SSO OIDC (SSO OIDC)
rubygem-aws-sdk-states-1.27.0  Official AWS Ruby gem for AWS Step Functions (AWS SFN)
rubygem-aws-sdk-storagegateway-1.40.0 Official AWS Ruby gem for AWS Storage Gateway
rubygem-aws-sdk-support-1.20.0 Official AWS Ruby gem for AWS Support
rubygem-aws-sdk-swf-1.19.0     Official AWS Ruby gem for Amazon Simple Workflow Service (Amazon SWF)
rubygem-aws-sdk-synthetics-1.1.0 Official AWS Ruby gem for Synthetics
rubygem-aws-sdk-textract-1.14.0 Official AWS Ruby gem for Amazon Textract
rubygem-aws-sdk-transcribeservice-1.41.0 Official AWS Ruby gem for Amazon Transcribe Service
rubygem-aws-sdk-transcribestreamingservice-1.13.0 Official AWS Ruby gem for Amazon Transcribe Streaming Service
rubygem-aws-sdk-transfer-1.19.0 Official AWS Ruby gem for AWS Transfer for SFTP (AWS Transfer)
rubygem-aws-sdk-translate-1.21.0 Official AWS Ruby gem for Amazon Translate
rubygem-aws-sdk-waf-1.29.0     Official AWS Ruby gem for AWS WAF (WAF)
rubygem-aws-sdk-wafregional-1.30.0 Official AWS Ruby gem for AWS WAF Regional (WAF Regional)
rubygem-aws-sdk-wafv2-1.4.0    Official AWS Ruby gem for AWS WAFV2 (WAFV2)
rubygem-aws-sdk-workdocs-1.22.0 Official AWS Ruby gem for Amazon WorkDocs
rubygem-aws-sdk-worklink-1.14.0 Official AWS Ruby gem for Amazon WorkLink (WorkLink)
rubygem-aws-sdk-workmail-1.23.0 Official AWS Ruby gem for Amazon WorkMail
rubygem-aws-sdk-workmailmessageflow-1.3.0 Official AWS Ruby gem for Amazon WorkMail Message Flow
rubygem-aws-sdk-workspaces-1.36.0 Official AWS Ruby gem for Amazon WorkSpaces
rubygem-aws-sdk-xray-1.25.0    Official AWS Ruby gem for AWS X-Ray
rubygem-aws-sigv2-1.0.1        Amazon Web Services Signature Version 2 signing library
rubygem-aws-sigv4-1.1.3        Amazon Web Services Signature Version 4 signing library
rubygem-axiom-types-0.1.1      Abstract types for logic programming in Ruby
rubygem-babosa-1.0.2           Ruby library for creating slugs
rubygem-base32-0.3.2           Ruby extension for base32 encoding and decoding
rubygem-batch-loader14-1.4.1   Powerful tool to avoid N+1 DB or HTTP queries
rubygem-bcrypt-3.1.13          OpenBSD bcrypt password hashing algorithm
rubygem-bcrypt_pbkdf-1.0.1_1   This gem implements bcrypt_pdkfd
rubygem-benchmark-ips-2.8.0    Iterations per second enhancement to Benchmark
rubygem-benchmark-memory-0.1.2 Benchmark-style memory profiling for Ruby 2.1+
rubygem-bindata-2.4.4          Ruby library to read and write binary file formats
rubygem-bindex-0.8.1           Bindings for your Ruby exceptions
rubygem-bootsnap-1.4.6         Boot large ruby/rails apps faster
rubygem-bootstrap_form-4.2.0_4 Form builder using Twitter Bootstrap 3+
rubygem-browser-2.5.3          Web browser detection for Ruby
rubygem-builder-3.2.3          Facilitate programmatic generation of XML markup
rubygem-bundler-2.0.2,1        Tool that manages gem dependencies for ruby applications
rubygem-byebug-11.1.3          Ruby 2 debugger
rubygem-capybara-3.32.1        Integration testing tool for rack based web applications
rubygem-carrierwave-1.3.1_1    Upload files, map them to a range of ORMs, store on different backends
rubygem-character_set-1.4.0    Build, read, write and compare sets of Unicode codepoints
rubygem-charlock_holmes-0.7.6_4 Gems for character encoding detection
rubygem-childprocess-3.0.0     External background process controller
rubygem-chunky_png-1.3.11      Ruby library to read and write PNG images
rubygem-citrus-3.0.2           Parsing Expressions for Ruby
rubygem-coercible-1.0.0        Ruby coercion library
rubygem-commonmarker-0.21.0    Ruby wrapper for libcmark (CommonMark parser)
rubygem-concurrent-ruby-1.1.6  Modern concurrency tools for Ruby
rubygem-connection_pool-2.2.2  Generic connection pool for Ruby
rubygem-contracts-0.10.1       Contracts for ruby
rubygem-countries-3.0.0        All sorts of useful information about every country
rubygem-crack-0.4.3            Ruby Library of Simple JSON and XML Parsing
rubygem-crass-1.0.4            CSS parser based on the CSS Syntax Level 3 draft
rubygem-creole-0.5.0           Creole-to-HTML converter
rubygem-css_parser-1.7.1       Set of classes for parsing CSS in Ruby
rubygem-dalli-2.7.10           High performance memcached client for Ruby
rubygem-deckar01-task_list-2.3.1 Markdown TaskList components
rubygem-declarative-0.0.10     DSL for nested schemas
rubygem-declarative-option-0.1.0 Dynamic options to evaluate at runtime
rubygem-default_value_for-3.3.0 Define default values for ActiveRecord models in a declarative manner
rubygem-descendants_tracker-0.0.4 Module that adds descendant tracking to a class
rubygem-device_detector-1.0.3  User agent parser and device detector
rubygem-devise-rails60-4.7.1   Flexible authentication solution for Rails with Warden
rubygem-devise-two-factor-rails60-3.1.0 Barebones two-factor authentication with Devise
rubygem-diff_match_patch-0.1.0 Ruby implementation of Google diff_match_patch
rubygem-diffy-3.3.0            Convenient diffing in ruby
rubygem-discordrb-webhooks-blackst0ne-3.3.0 Discord API for Ruby
rubygem-domain_name-0.5.20170404 Domain Name manipulation library for ruby
rubygem-doorkeeper-5.0.2_1     Doorkeeper is an OAuth 2 provider for Rails and Grape
rubygem-doorkeeper-openid_connect-1.6.3 OpenID Connect extension for Doorkeeper
rubygem-dry-configurable-0.11.5 Mixin to add configuration functionality to your classes
rubygem-dry-container-0.7.2    Simple container intended for use as an IoC container
rubygem-dry-core-0.4.9         Toolset of small support modules used throughout the dry-rb ecosystem
rubygem-dry-equalizer-0.3.0    Module to define equality, equivalence and inspection methods
rubygem-dry-inflector-0.2.0    String inflections for dry-rb
rubygem-dry-logic-1.0.6        Predicate logic with rule composition
rubygem-dry-types-1.4.0        Type system for Ruby supporting coercions, constraints and complex types
rubygem-ed25519-1.2.4          Ruby binding to the Ed25519 (RFC 8032)
rubygem-elasticsearch-api6-6.8.1 Ruby API for Elasticsearch
rubygem-elasticsearch-model6-6.1.0 ActiveModel/Record integrations for Elasticsearch
rubygem-elasticsearch-rails6-6.1.0 Ruby on Rails integrations for Elasticsearch
rubygem-elasticsearch-transport6-6.8.1 Ruby client for Elasticsearch
rubygem-elasticsearch6-6.8.1   Ruby integrations for Elasticsearch
rubygem-email_reply_trimmer-0.1.12 Library to trim replies from plain text email
rubygem-encryptor-3.0.0        Wrapper for the standard ruby OpenSSL library
rubygem-equalizer-0.0.11       Ruby library to define equality methods
rubygem-erubi-1.9.0            ERB template engine for Ruby
rubygem-escape_utils-1.2.1     Faster string escaping routines for your web apps
rubygem-et-orbi-1.2.4          Time zones for fugit and rufus-scheduler
rubygem-excon-0.73.0           Extended http(s) Connections Library
rubygem-execjs-2.7.0           ExecJS lets you run JavaScript code from Ruby
rubygem-expression_parser-0.9.0 Mathematical expression parser for Ruby
rubygem-extended-markdown-filter-0.7.0 Custom markdown processor GitHubs HTML Pipeline
rubygem-faraday-0.17.3         HTTP/REST API client library in Ruby
rubygem-faraday_middleware-0.14.0 Collection of Ruby Faraday middlewares
rubygem-faraday_middleware-aws-signers-v4-0.2.0.b Faraday middleware for AWS Signature Version 4
rubygem-faraday_middleware-multi_json-0.0.6 Faraday response parser using MultiJson
rubygem-fast_blank-1.0.0       Fast String blank implementation
rubygem-fast_gettext-2.0.2     Fast, memory-efficient and threadsafe GetText for Ruby
rubygem-ffi-1.12.2             Extension for dynamic libraries & binding functions
rubygem-ffi-compiler-1.0.1     Ruby FFI library
rubygem-flipper-0.17.2         Act of enabling/disabling features in your application
rubygem-flipper-active_record-0.17.2 ActiveRecord adapter for Flipper
rubygem-flipper-active_support_cache_store-0.17.2 ActiveSupport::Cache store adapter for Flipper
rubygem-flowdock-0.7.1         Gem for Flowdock API
rubygem-fog-aliyun-0.3.10      Module for the 'fog' gem to support aliyun OSS/ECS
rubygem-fog-aws-3.6.3          Module for the 'fog' gem to support Amazon Web Services
rubygem-fog-core-2.2.0         Shared classes and tests for fog providers and services
rubygem-fog-core1-1.45.0       Shared classes and tests for fog providers and services
rubygem-fog-core210-2.1.0      Shared classes and tests for fog providers and services
rubygem-fog-google19-1.9.1     Module for the 'fog' gem to support Google Cloud
rubygem-fog-json-1.2.0         Extraction of the JSON parsing tools between providers
rubygem-fog-local-0.6.0        Module for the 'fog' gem to support local filesystem storage
rubygem-fog-openstack-1.0.10   Module for the 'fog' gem to support OpenStack clouds
rubygem-fog-rackspace-0.1.6    Module for the 'fog' gem to support Rackspace
rubygem-fog-xml-0.1.3          Extraction of the XML parsing tools shared among 'fog' providers
rubygem-font-awesome-rails-rails60-4.7.0.5 Provides the Font-Awesome web fonts and stylesheets as a Rails engine
rubygem-formatador-0.2.5       STDOUT text formatting
rubygem-fugit-1.3.5            Time tools for flor and the floraison project
rubygem-fugit12-1.2.3          Time tools for flor and the floraison project
rubygem-gemoji-3.0.1           Emoji assets
rubygem-gemojione-3.3.0        Gem containing EmojiOne unicode/image assets
rubygem-gemojione32-3.2.0      Gem containing EmojiOne unicode/image assets
rubygem-get_process_mem-0.2.5  Get memory usage of a process in Ruby
rubygem-gettext-3.3.5          Ruby implementation of the gettext library
rubygem-gettext32-3.2.9        Ruby implementation of the gettext library
rubygem-gettext_i18n_rails-1.8.1 Simple FastGettext Rails integration
rubygem-gettext_i18n_rails_js-rails60-1.3.0 Make gettext_i18n_rails .po files as JSON
rubygem-gitaly-12.9.0.p.r4_1   Auto-generated gRPC client for gitaly
rubygem-github-linguist-7.6.1_2 GitHub Language detection
rubygem-github-markup17-1.7.0  Render any fancy markup
rubygem-gitlab-chronic-0.10.5  Natural language date/time parser written in pure Ruby
rubygem-gitlab-derailed_benchmarks-1.6.1 Benchmarks for your whole Rails app
rubygem-gitlab-gollum-lib-4.2.7.8 Simple, Git-powered wiki with a sweet API and local frontend
rubygem-gitlab-gollum-rugged_adapter-0.4.4.2_2 Adapter for Gollum to use Rugged (libgit2) at the backend
rubygem-gitlab-labkit-0.11.0_1 Instrumentation for GitLab
rubygem-gitlab-license-1.0.0   Generate, verify and enforce software licenses
rubygem-gitlab-mail_room-0.0.3 This mail_room will proxy email (gmail) from IMAP to a delivery method
rubygem-gitlab-markup-1.7.0    Render any fancy GitLab markup
rubygem-gitlab-net-dns-0.9.1   Pure Ruby DNS library
rubygem-gitlab-puma-4.3.3.g.2  Fast, multithreaded and highly concurrent ruby web server
rubygem-gitlab-puma_worker_killer-0.1.1.g.1 Automatically restart Puma cluster workers based on max RAM available
rubygem-gitlab-sidekiq-fetcher-0.5.2_1 Redis reliable queue pattern implemented in Sidekiq
rubygem-gitlab_chronic_duration-0.10.6.2 Natural language parser for elapsed time
rubygem-gitlab_omniauth-ldap-2.1.1 LDAP strategy for OmniAuth
rubygem-globalid-rails60-0.4.2 URIs for your models makes it easy to pass references around
rubygem-gon-rails60-6.2.1      Framework to pass data to JS easily
rubygem-google-api-client-0.39.0 Client for accessing Google APIs
rubygem-google-protobuf38-3.8.0 Ruby extension to Google Protocol Buffers
rubygem-googleapis-common-protos-types104-1.0.4 Common protocol buffer types used by Google APIs
rubygem-googleauth-0.12.0      Google Auth Library for Ruby
rubygem-gpgme-2.0.20           Ruby interface to GnuPG Made Easy (GPGME)
rubygem-grape-1.3.2            Framework for rapid API development with great conventions
rubygem-grape-entity-0.7.1_2,1 Entities - a simple Facade to use with your models and API
rubygem-grape-path-helpers-1.2.0 Route path helpers for Grape
rubygem-grape11-1.1.0_2        Framework for rapid API development with great conventions
rubygem-grape_logging-1.8.3    Request logging for Grape
rubygem-graphiql-rails-1.4.11_3 Use the GraphiQL IDE for GraphQL with Ruby on Rails
rubygem-graphql-1.9.19         Plain-Ruby implementation of GraphQL
rubygem-graphql-docs-1.6.1     Generate beautiful documentation from your GraphQL schema
rubygem-grpc124-1.24.0_1       Ruby implementation of gRPC
rubygem-gssapi-1.3.0           Ruby FFI Library wrapper for GSSAPI
rubygem-hamlit-2.11.0          High Performance Haml Implementation
rubygem-hangouts-chat-0.0.6    Module 'hangouts-chat' gem to talk to G Suite Hangouts Chat rooms
rubygem-hashdiff-1.0.1         Diff lib to compute the smallest difference between two hashes
rubygem-hashie-4.1.0           Hashie is a simple collection of useful Hash extensions
rubygem-hashie-forbidden_attributes-0.1.1 Hashie compatibility layer for forbidden attributes protection
rubygem-health_check26-rails60-2.6.0 Simple health check of Rails app for uptime monitoring
rubygem-heapy-0.1.4            CLI for analyzing Ruby Heap dumps
rubygem-hipchat-1.6.0          Ruby library to interact with HipChat
rubygem-html-pipeline-2.12.3   GitHub HTML processing filters and utilities
rubygem-html2text-0.2.1        Convert HTML into a plain text format
rubygem-htmlentities-4.3.4     HTML entity encoding and decoding for Ruby
rubygem-http-4.4.1             Simple Ruby DSL for making HTTP requests
rubygem-http-cookie-1.0.3      Ruby library to handle HTTP Cookies
rubygem-http-form_data-2.3.0   Build form data request bodies
rubygem-http-parser-1.2.1      Super fast http parser for Ruby
rubygem-httparty-0.16.4        Ruby Library that Makes HTTP Fun Again
rubygem-httpclient-2.8.3       Yet another HTTP client implementation by NaHi
rubygem-i18n-1.8.2,2           New wave Internationalization support for Ruby
rubygem-i18n_data-0.8.0        Country/Language names in 2-letter code pairs
rubygem-icalendar-2.5.3        Library for working with iCalendar files
rubygem-ice_cube-0.16.3        Recurring date library for Ruby
rubygem-ice_nine-0.11.2        Deep freeze Ruby objects
rubygem-idn-ruby-0.1.0_2       LibIDN Ruby Bindings
rubygem-image_processing-1.10.3 High-level wrapper for processing images for the web with ImageMagick or libvips
rubygem-influxdb-0.7.0         Ruby library for InfluxDB
rubygem-invisible_captcha-0.12.2_1 Unobtrusive CAPTCHA for ruby
rubygem-ipaddress-0.8.3        IP address manipulation library for rubygems
rubygem-jaeger-client-0.10.0_1 OpenTracing Tracer implementation for Jaeger in Ruby
rubygem-jbuilder-rails60-2.10.0 Create JSON structures via a Builder-style DSL
rubygem-jira-ruby1-1.8.0       API for JIRA
rubygem-jmespath-1.4.0         JMESPath for Ruby
rubygem-js_regex-3.5.0         Convert ruby native regular expressions for JavaScript
rubygem-json-2.3.0             Parse JSON texts and generate them from ruby data structures
rubygem-json-jwt-1.11.0_1      JSON Web Token implementation in Ruby
rubygem-json1-1.8.6            Parse JSON texts and generate them from ruby data structures
rubygem-json_pure-2.1.0        Parse JSON texts and generate them from ruby data structures in Ruby
rubygem-jwt-2.2.1              JSON Web Token implementation in Ruby
rubygem-jwt21-2.1.0            JSON Web Token implementation in Ruby
rubygem-kaminari-actionview-rails60-1.2.0 Kaminari Action View adapter
rubygem-kaminari-activerecord-rails60-1.2.0 Kaminari Active Record adapter
rubygem-kaminari-core-1.2.0    Kaminari core libraries
rubygem-kaminari-rails60-1.2.0 Sophisticated paginator for Rails 4+
rubygem-kgio-2.11.2            Provides non-blocking I/O methods
rubygem-kubeclient-4.6.0_1     Client for Kubernetes REST API
rubygem-licensee8-8.9.2_2      Detects under what license a project is distributed
rubygem-liquid-4.0.3           Library for rendering safe templates
rubygem-locale-2.1.2           Pure ruby library to support locales
rubygem-lograge-rails60-0.11.2 Tame Rails' multi-line logging into a single line per request
rubygem-loofah-2.5.0           Library for manipulating HTML/XML documents and fragments
rubygem-lru_redux-1.1.0        Efficient implementation of an lru cache
rubygem-mail-2.7.1,2           Ruby email handler
rubygem-marcel-0.3.3           Simple mime type detection
rubygem-marginalia-1.8.0_1     Attach comments to your ActiveRecord queries
rubygem-memoist-0.16.1         Memoize methods invocation
rubygem-memory_profiler-0.9.14 Memory profiling routines for Ruby 2.3+
rubygem-method_source-1.0.0    Tool to retrieve the sourcecode for a method
rubygem-method_source0-0.9.2   Tool to retrieve the sourcecode for a method
rubygem-mime-types-3.2.2       Ruby gem which provides a mailcap-like MIME Content-Type lookup
rubygem-mime-types-data-3.2020.0425 MIME Type registry data
rubygem-mimemagic-0.3.5        MIME detection by extension or content in pure ruby
rubygem-mini_magick-4.10.1     Manipulate images with minimal use of memory via ImageMagick
rubygem-mini_mime-1.0.2        Lightweight mime type lookup toy
rubygem-minitest-5.11.3        Minitest provides a complete suite of testing facilities
rubygem-msgpack-1.3.3          Gems for MessagePack
rubygem-multi_json-1.14.1      Ruby library provide swappable JSON backends
rubygem-multi_xml-0.6.0        Ruby library provide swappable XML backends
rubygem-multipart-post-2.1.1   Ruby Library that Use with Net::HTTP to do multipart form posts
rubygem-murmurhash3-0.1.6      Implementation of murmur3 hashing function
rubygem-mustermann-1.1.1       Lbrary implementing patterns that behave like regular expressions
rubygem-mustermann-grape-1.0.1 Adds Grape style patterns to Mustermman
rubygem-nakayoshi_fork-0.0.4   Solves CoW friendly problem on MRI 2.2 and later
rubygem-net-ldap-0.16.1        Pure Ruby LDAP support library with most client features
rubygem-net-ntp-2.1.3          Implementation of the NTP protocol
rubygem-net-ssh-5.2.0,2        Non-interactive SSH processing
rubygem-netrc-0.11.0           Read and update netrc files
rubygem-nio4r-2.5.2            Cross-platform asynchronous I/O primitives
rubygem-nokogiri-1.10.9        HTML, XML, SAX, and Reader parser
rubygem-nokogumbo-1.5.0        Nokogiri interface to the Gumbo HTML5 parser
rubygem-numerizer-0.2.0        Parse numbers in natural language from strings
rubygem-oauth-0.5.4            Rubygem for Creating both OAuth Consumers and Service Providers
rubygem-oauth2-1.4.4           Ruby wrapper for the OAuth 2.0 protocol
rubygem-octokit-4.15.0         Simple wrapper for the GitHub API
rubygem-omniauth-1.9.1         Generalized Rack framework for multiple-provider authentication
rubygem-omniauth-auth0-2.0.0   Authentication broker supporting different identity providers
rubygem-omniauth-authentiq-0.3.3_1 Authentiq OAuth2 Strategy for OmniAuth
rubygem-omniauth-azure-oauth2-0.0.9_1 Azure OAuth2 Strategy for OmniAuth
rubygem-omniauth-cas3-1.1.4    CAS 3.0 Strategy for OmniAuth
rubygem-omniauth-facebook4-4.0.0 Facebook OAuth2 Strategy for OmniAuth
rubygem-omniauth-github-1.4.0  Official OmniAuth strategy for GitHub
rubygem-omniauth-gitlab-1.0.4  OmniAuth strategy for GitLab
rubygem-omniauth-google-oauth2-0.6.0 Google OAuth2 strategy for OmniAuth 1.x
rubygem-omniauth-kerberos-0.3.0 OmniAuth strategy for Kerberos
rubygem-omniauth-multipassword-0.4.2 OmniAuth strategy using different passwort strategies
rubygem-omniauth-oauth-1.1.0   Generic OAuth strategy for OmniAuth
rubygem-omniauth-oauth2-1.5.0  Abstract OAuth2 strategy for OmniAuth
rubygem-omniauth-oauth2-generic-0.2.4 Generic, Configurable OmniAuth Strategy for OAuth2 providers
rubygem-omniauth-salesforce-1.0.5 OmniAuth strategy for salesforce.com
rubygem-omniauth-saml-1.10.1   OmniAuth strategy for SAML
rubygem-omniauth-shibboleth-1.3.0 OmniAuth Shibboleth strategies for OmniAuth 1.x
rubygem-omniauth-twitter-1.4.0 OmniAuth strategy for Twitter
rubygem-omniauth-ultraauth-0.0.2 Passwordless authentication plugin
rubygem-omniauth_crowd22-2.2.3_2 OmniAuth provider for Atlassian Crowds REST API
rubygem-omniauth_openid_connect-0.3.3 OpenID Connect Strategy for OmniAuth
rubygem-openid_connect-1.1.7_1 OpenID Connect Server & Client Library
rubygem-opentracing-0.5.0      OpenTracing Ruby Platform API
rubygem-optimist-3.0.1         commandline option parser for Ruby
rubygem-org-ruby-0.9.12        Org mode parser written in Ruby
rubygem-orm_adapter-0.5.0      Provides a single point of entry for using basic features of ruby ORMs
rubygem-os-1.1.0               Allows for some useful and easy functions
rubygem-peek-rails60-1.1.0     Take a peek into your Rails application
rubygem-pg-1.1.4_1             Ruby interface to PostgreSQL library
rubygem-pkg-config-1.4.1       pkg-config implementation for Ruby
rubygem-po_to_json-1.0.1       Convert gettext PO files to JSON objects
rubygem-premailer-1.11.1       Improve the rendering of HTML emails
rubygem-premailer-rails-rails60-1.10.3 Improve the rendering of HTML emails
rubygem-prometheus-client-mmap-0.10.0 Suite of instrumentation metric primitives
rubygem-public_suffix-4.0.5    Ruby domain name parser based on the Public Suffix List
rubygem-puma-3.12.1            Fast, multithreaded and highly concurrent ruby web server
rubygem-pyu-ruby-sasl-0.0.3.3  Simple Authentication and Security Layer
rubygem-raabro-1.1.6           Dumb PEG parser library
rubygem-rack-2.2.2,3           Rack, a Ruby Webserver Interface
rubygem-rack-accept-0.4.5_2    HTTP Accept* for Ruby/Rack
rubygem-rack-attack-6.2.1      Rack middleware for throttling and blocking abusive requests
rubygem-rack-cors-1.0.6        Middleware that will make Rack-based apps CORS compatible
rubygem-rack-oauth2-1.9.3      OAuth 2.0 Server & Client Library
rubygem-rack-protection-2.0.8.1 Collection of Rack middleware to protect against opportunistic attack
rubygem-rack-proxy-0.6.5       Request/response rewriting proxy capabilities with streaming
rubygem-rack-test-1.1.0        Small, simple testing API for Rack apps
rubygem-rack-timeout-0.5.1     Abort requests that are taking too long
rubygem-rack16-1.6.13          Rack, a Ruby Webserver Interface
rubygem-rack20-2.0.9,3         Rack, a Ruby Webserver Interface
rubygem-rails-dom-testing-rails60-2.0.3 Analyse and compare DOMs using Nokogiri
rubygem-rails-html-sanitizer-1.3.0 Sanitize HTML fragments in Rails applications
rubygem-rails-i18n-rails60-6.0.0 Common locale data and translations for Rails i18n
rubygem-rails60-6.0.2.2_1      Full-stack web application framework
rubygem-railties60-6.0.2.2     Rails internals bootup, plugins, generators, and rake tasks
rubygem-rainbow-3.0.0          Extends ruby String class enabling coloring text on ANSI terminals
rubygem-raindrops-0.19.0       Real-time stats toolkit to show statistics for Rack HTTP servers
rubygem-rake-12.3.3            Ruby Make
rubygem-rb-fsevent-0.10.3      FSEvents API with Signals catching (without RubyCocoa)
rubygem-rb-inotify-0.10.1      Ruby wrapper for libinotify, using ffi
rubygem-rbtrace-0.4.11         Shows method calls inside another ruby process in real time
rubygem-rdoc-6.1.2_1           RDoc produces HTML and command-line documentation for Ruby projects
rubygem-re2-1.1.1_2            Ruby bindings to re2
rubygem-recaptcha-4.13.1       Helpers for the reCAPTCHA API
rubygem-recursive-open-struct-1.1.0 Allows nested hashes to be treated in a recursive fashion
rubygem-redcloth-4.3.2         Module for using Textile in Ruby
rubygem-redis-4.1.4            Ruby client library for Redis, the key value storage server
rubygem-redis-actionpack-rails60-5.2.0 Redis session store for ActionPack
rubygem-redis-activesupport-rails60-5.2.0 Redis store for ActiveSupport::Cache
rubygem-redis-namespace-1.6.0  Ruby client class for Redis with namespace support
rubygem-redis-rack-2.1.2       Redis Store for Rack
rubygem-redis-rails-rails60-5.0.2 Redis for Ruby on Rails
rubygem-redis-store-1.5.0      Namespaced Redis stores for Ruby web frameworks
rubygem-regexp_parser-1.6.0    Tokenizing, lexinf and parsing Ruby regular expressions
rubygem-regexp_property_values-1.0.0 Display which property value regexp support
rubygem-representable-3.0.4    Maps Ruby objects to documents and back
rubygem-request_store-1.4.1    RequestStore gives you per-request global storage
rubygem-responders-rails60-3.0.0 Simple Ruby DSL for making HTTP requests
rubygem-rest-client-2.0.2      Simple Simple HTTP and REST client for Ruby
rubygem-retriable-3.1.2        Simple DSL to retry failed code blocks
rubygem-rinku-2.0.4            Fast and smart autolinking drop-in replacement for Rails auto_link
rubygem-rotp-3.3.1             Ruby library for generating one time passwords
rubygem-rouge-3.18.0           Simple, easy-to-extend drop-in replacement for pygments
rubygem-rouge317-3.17.0        Simple, easy-to-extend drop-in replacement for pygments
rubygem-rqrcode-0.10.1         Library for encoding QR Codes
rubygem-rqrcode-rails3-0.1.7   Render QR codes with Rails 3
rubygem-ruby-enum-0.8.0        Enum-like behavior for Ruby
rubygem-ruby-fogbugz021-0.2.1  Simple Ruby wrapper for the Fogbugz XML API
rubygem-ruby-prof-1.0.0        Fast profiler for Ruby
rubygem-ruby-progressbar-1.10.0 Progressbar library for Ruby
rubygem-ruby-saml-1.9.0        SAML toolkit for Ruby on Rails
rubygem-ruby-statistics-2.1.2  Provide ruby with statistical capabilities
rubygem-ruby-termios-1.0.2     Ruby interface to termios
rubygem-ruby-vips-2.0.17_1     Binding for the vips image processing library
rubygem-ruby2_keywords-0.0.2   Shim library for Module#ruby2_keywords
rubygem-ruby_parser-3.10.1     Ruby parser written in pure ruby
rubygem-rubyntlm-0.6.2         Message creator and parser for the NTLM authentication
rubygem-rubypants-0.7.0        Translates ASCII into smart typographic punctuation HTML entities
rubygem-rubyzip-2.3.0          Ruby module for reading and writing zip files
rubygem-rubyzip20-2.0.0        Ruby module for reading and writing zip files
rubygem-rugged-1.0.0           Rugged is a Ruby binding to the libgit2 linkable library
rubygem-safe_yaml-1.0.5        Parse YAML safely
rubygem-sanitize-4.6.6         Whitelist based HTML sanitizer
rubygem-sass-3.7.4             Sass is an extension of CSS3
rubygem-sass-listen-4.0.0      Listens to file modifications
rubygem-sass-rails-rails60-6.0.0 Sass adapter for the Rails asset pipeline
rubygem-sassc-2.3.0            Use libsass with Ruby
rubygem-sassc-rails-rails60-2.1.2_1 Integrate SassC-Ruby into Rails
rubygem-sawyer-0.8.2           Secret User Agent of HTTP
rubygem-seed-fu-2.3.9_1        Library to maintain seed datas
rubygem-selenium-webdriver-3.142.7 Tool for writing automated tests of websites
rubygem-sentry-raven-2.13.0    Client interface for the Sentry error logger
rubygem-sentry-raven29-2.9.0_1 Client interface for the Sentry error logger
rubygem-settingslogic-2.0.9    Gem to use YAML and singleton design paterns
rubygem-sexp_processor-4.11.0  Generic sexp processing tools
rubygem-sidekiq-cron-1.2.0     Enables to set jobs to be run in specified time (using CRON notation)
rubygem-sidekiq5-5.2.8         Simple, efficient background processing for Ruby
rubygem-signet-0.14.0          OAuth 1.0 / OAuth 2.0 implementation
rubygem-sixarm_ruby_unaccent-1.2.0 Replaces accented characters with unaccented characters
rubygem-slack-messenger-2.3.3  Slim ruby wrapper for posting to slack webhooks
rubygem-snowplow-tracker-0.6.1 Tracker to collect ruby data
rubygem-spring-2.1.0           Rails application preloader
rubygem-sprockets-rails-rails60-3.2.1 Sprockets Rails integration
rubygem-sprockets3-3.7.2       Ruby library that preprocesses and concatenates JavaScript files
rubygem-sqlite3-1.4.2          Ruby interface to the SQLite DB engine version 3
rubygem-sshkey-2.0.0           Generate private/public SSH keypairs using pure Ruby
rubygem-stackprof-0.2.15       Fast sampling profiler for ruby code
rubygem-state_machines-0.5.0   Support for creating state machines for attributes on any Ruby class
rubygem-state_machines-activemodel-0.7.1_1 Support for creating state machines for attributes on ActiveModel
rubygem-state_machines-activerecord-0.6.0_1 Support for creating state machines for attributes on ActiveRecord
rubygem-stringex-2.8.5,1       Some useful extensions to the Ruby String class
rubygem-swd-1.1.2              Simple Web Discovery Client Library
rubygem-sys-filesystem-1.1.9   Ruby interface for getting filesystem information
rubygem-temple-0.8.2           Template compilation framework in Ruby
rubygem-text-1.3.1             Collection of text algorithms
rubygem-thor-0.20.3            Scripting framework that replaces rake, sake, and rubigen
rubygem-thread_safe-0.3.6      Thread-safe collections and utilities for Ruby
rubygem-thrift-0.11.0.0,1      Ruby interface to thrift
rubygem-tilt-2.0.9             Generic interface to multiple Ruby template engines
rubygem-timfel-krb5-auth-0.8.3 KRB5 for Ruby
rubygem-toml-rb10-1.0.0        TOML parser using Citrus parsing library
rubygem-truncato-0.7.11        Truncating HTML strings keeping a valid HTML markup
rubygem-turbolinks-5.2.1       Turbolinks makes following links in your web application faster
rubygem-turbolinks-source-5.2.0 Turbolinks JavaScript assets
rubygem-twitter-text-3.0.0     Ruby gem for handling of Twitter texts
rubygem-tzinfo-2.0.2           Daylight-savings aware timezone support for Ruby
rubygem-tzinfo1-1.2.7          Daylight-savings aware timezone support for Ruby
rubygem-u2f0-0.2.1             Library for handling registration and authentication of U2F devices
rubygem-uber-0.1.0             Gem-authoring framework
rubygem-uglifier-4.1.20        Ruby wrapper for UglifyJS JavaScript compressor
rubygem-uglifier27-2.7.2       Ruby wrapper for UglifyJS JavaScript compressor
rubygem-unf-0.1.4              Wrapper library to bring Unicode Normalization Form support
rubygem-unf_ext-0.0.7.5        Unicode Normalization Form support library for CRuby
rubygem-unicode_utils-1.4.0    Additional Unicode aware functions
rubygem-unicorn-5.4.1          Unicorn is an HTTP server for Rack applications
rubygem-unicorn-worker-killer-0.4.4 Kill unicorn workers by memory and request counts
rubygem-unleash-0.1.6          Ruby client for Unleash
rubygem-validate_email-0.1.6_1 Validating email addresses in Rails 3 models
rubygem-validate_url-1.0.8_1   Validating urls in Rails
rubygem-validates_hostname-1.0.10 Extension to ActiveRecord::Base for validating hostnames
rubygem-version_sorter-2.2.4   Fast sorting of version strings
rubygem-virtus-1.0.5           Attributes on Steroids for Plain Old Ruby Objects
rubygem-vmstat-2.3.0_1         Library to gather memory, cpu, network, load avg and disk information
rubygem-warden-1.2.8_2         Rack middleware that provides authentication for rack applications
rubygem-web-console-rails60-4.0.1 Debugging tool for your Ruby on Rails applications
rubygem-webdrivers-4.3.0       Run Selenium tests more easily with install and updates for all supported webdrivers
rubygem-webfinger-1.1.0        WebFinger client library
rubygem-webmock-3.8.3          Allows stubbing HTTP requests and setting expectations on the requests
rubygem-webpack-rails-rails60-0.9.11 JavaScript-first tooling to use webpack within your Rails application
rubygem-webpacker4-rails60-4.2.2 Use Webpack to manage app-like JavaScript modules in Rails
rubygem-websocket-driver-0.7.1 WebSocket protocol handler with pluggable I/O
rubygem-websocket-extensions-0.1.4 Generic extension manager for WebSocket connections
rubygem-wikicloth081-0.8.1_1   Ruby parser for the MediaWiki markup language
rubygem-xml-simple-1.1.5       Ruby take off of p5-XML-Simple
rubygem-xpath-3.2.0            DSL for generating XPath Expressions
rubygem-zeitwerk-2.3.0         Efficient and thread-safe code loader
serf-1.3.9_4                   Serf HTTP client library
shared-mime-info-1.10_2        MIME types database from the freedesktop.org project
sqlite3-3.31.1_1,1             SQL database engine in a C library
subversion-1.13.0_1            Version control system
sudo-1.8.31p1                  Allow others to run commands as root
tiff-4.1.0                     Tools and library routines for working with TIFF images
tpm-emulator-0.7.4_2           Trusted Platform Module (TPM) emulator
trousers-0.3.14_2              Open-source TCG Software Stack
utf8proc-2.4.0                 UTF-8 processing library
vips-8.9.2_2                   Free image processing system
virtualbox-ose-additions-nox11-5.2.34_2 VirtualBox additions for FreeBSD guests
wayland-1.18.0_3               Wayland composite "server"
webp-1.1.0                     Google WebP image format conversion tool
x265-3.2.1_2                   H.265/High Efficiency Video Coding (HEVC) format
xorg-fonts-truetype-7.7_1      X.Org TrueType fonts
xorgproto-2020.1               xorg protocol headers
yarn-1.22.4_1                  Package manager for node, alternative to npm
